DATA 608 Assignment 1
…
#Ordering adapted from: https://stackoverflow.com/questions/25664007/reorder-bars-in-geom-bar-ggplot2

Quesiton 2

Lets dig in on the state with the 3rd most companies in the data set. Imagine you work for the state and are interested in how many people are employed by companies in different industries. Create a plot that shows the average and/or median employment by industry for companies in this state (only use cases with full data, use Rs complete.cases() function.) In addition to this, your graph should show how variable the ranges are, and you should deal with outliers.

From the above chart, New York is in third place for high growth companies. I simply used tidyrs filter() function to subset the data. I used error bars to show the range of the variables. For the industries that have a single entry, and therefore undefined standard deviation, I imputed the value of 0 to draw the error bars.

#apadted: https://stackoverflow.com/questions/28687515/search-for-and-remove-outliers-from-a-dataframe-grouped-by-a-variable
ny_data <- inc  %>% filter(State == 'NY', complete.cases(.)) %>% arrange(Industry) %>% select(Industry, Employees) 
ny_data <- ny_data %>% group_by(Industry) %>% filter(!(abs(Employees - median(Employees)) > 1.5*IQR(Employees)))# Using 1.5xIQR as the outlier limit
ny_data

## # A tibble: 262 x 2
## # Groups:   Industry [25]
##    Industry                Employees
##    <fct>                       <int>
##  1 Advertising & Marketing        79
##  2 Advertising & Marketing        27
##  3 Advertising & Marketing        89
##  4 Advertising & Marketing        75
##  5 Advertising & Marketing        42
##  6 Advertising & Marketing        15
##  7 Advertising & Marketing        46
##  8 Advertising & Marketing        19
##  9 Advertising & Marketing        45
## 10 Advertising & Marketing        12
## # ... with 252 more rows

#The 1.5xIQR rule reduced the number of negative error bars better than the 2xstd dev rule.

ind_means <- ny_data %>% group_by(Industry) %>% summarise(mean_emp = mean(Employees), emp_sd = sd(Employees))
ind_means$emp_sd[is.na(ind_means$emp_sd)] <- 0

ind_means

## # A tibble: 25 x 3
##    Industry                     mean_emp emp_sd
##    <fct>                           <dbl>  <dbl>
##  1 Advertising & Marketing          38.2   24.2
##  2 Business Products & Services    102.   122. 
##  3 Computer Hardware                44      0  
##  4 Construction                     29.4   22.4
##  5 Consumer Products & Services     36.5   28.1
##  6 Education                        49.1   28.2
##  7 Energy                          116.    23.8
##  8 Engineering                      53.5   39.8
##  9 Environmental Services          155    134. 
## 10 Financial Services               88     68.9
## # ... with 15 more rows
…
Question 3

Now imagine you work for an investor and want to see which industries generate the most revenue per employee. Create a chart that makes this information clear. Once again, the distribution per industry should be shown.

I had previously calculated the ratios for revenue per employee. I used the same 1.5\(\times\)IQR as the outlier range and repeated the process above to make the bar chart.

rev_per_ind <- inc %>% filter(complete.cases(.)) %>% group_by(Industry) %>% filter(!(abs(rev_per_empl - median(rev_per_empl)) > 1.5*IQR(rev_per_empl))) %>% summarise(mean_rev_per_empl = mean(rev_per_empl), rev_sd = sd(rev_per_empl))
rev_per_ind

## # A tibble: 25 x 3
##    Industry                     mean_rev_per_empl  rev_sd
##    <fct>                                    <dbl>   <dbl>
##  1 Advertising & Marketing                204778. 107797.
##  2 Business Products & Services           203126. 128333.
##  3 Computer Hardware                      493371. 286003.
##  4 Construction                           312107. 207266.
##  5 Consumer Products & Services           309621. 216944.
##  6 Education                              154420.  91885.
##  7 Energy                                 355270. 288510.
##  8 Engineering                            163207.  58792.
##  9 Environmental Services                 156074.  57728.
## 10 Financial Services                     213129. 117896.
## # ... with 15 more rows
…
